Yapay Öğrenme
…
# random forest
iris_rf <- rand_forest(trees = 100, mode = "classification") %>% set_engine("randomForest") %>% 
    fit(Species ~ ., data = iris_training)

Ayrıca, modelin birçok argümana sahip tek, büyük bir işlevde tanımlanmadığını da belirtmekte fayda var. Model tanımı, fit() ve set_engine() gibi daha küçük işlevlere ayrılmıştır. Bu, daha esnek - ve öğrenmesi daha kolay - bir arayüz sağlar.

4.1.6 Tahminler

Bir vektör yerine, parsnip modeline karşı çalıştırılan predict() işlevi bir tibble döndürür. Varsayılan olarak tahmin değişkeni .pred_class olarak adlandırılır. Örnekte, pişmiş(baked) test verilerinin kullanıldığına dikkat edin.

# tahminler
predict(iris_ranger, iris_testing)

# A tibble: 60 x 1
   .pred_class
   <fct>      
 1 setosa     
 2 setosa     
 3 setosa     
 4 setosa     
 5 setosa     
 6 setosa     
 7 setosa     
 8 setosa     
 9 setosa     
10 setosa     
# ... with 50 more rows
…
Operations:

Variables removed Overall_Qual, Exter_Qual, Bsmt_Qual, ... [trained]
Dummy variables from MS_SubClass, MS_Zoning, Street, Alley, ... [trained]
Centering for Lot_Frontage, Lot_Area, ... [trained]
Scaling for Lot_Frontage, Lot_Area, ... [trained]
PCA extraction with BsmtFin_SF_1, BsmtFin_SF_2, ... [trained]
Sparse, unbalanced variable filter removed Kitchen_AbvGr, ... [trained]

Şimdi, önceden işlenmiş eğitim setimizi veren, hazırlanan tarifleri "juice" işlevine sokabiliriz. PCA çıkarımımıza bir göz atalım.

# islenmis veri
ames_rec_trained %>% juice() %>% select(starts_with("PC"))

# A tibble: 2,199 x 7
        PC1    PC2    PC3     PC4     PC5     PC6     PC7
      <dbl>  <dbl>  <dbl>   <dbl>   <dbl>   <dbl>   <dbl>
 1 -1.79     1.20   0.783  0.194   0.120   0.204   2.13  
 2 -0.625    1.51   0.164 -0.0112  0.0919  1.50    0.256 
 3 -2.57    -0.201 -0.677  0.723   1.08   -0.455  -0.799 
 4  0.339    0.932  0.400 -0.230  -0.486   0.819   0.846 
 5  0.159    0.903  0.385 -0.360  -0.390   1.62    0.510 
 6 -0.00598 -0.337 -0.603  0.247   0.395  -0.0660 -0.781 
 7 -0.172   -0.277 -0.689 -0.116  -0.219  -0.772  -0.838 
 8  0.568   -1.19   0.716 -0.382  -0.347   0.243   0.715 
 9  0.0123   1.80   0.152 -0.217  -0.0602  2.17   -0.0132
10  1.06    -1.55   0.423 -0.211  -0.251  -0.520   0.318 
# ... with 2,189 more rows
…
Computational engine: glmnet 

Tasarladığımız iş akışımızla modelimize uydurmak, eğitim verilerimizi ve iş akışımızı fit() işlevine geçirmek kadar basittir.

# model uydurma
ames_lasso_fit <- fit(ames_lasso_wfl, ames_train)

Tahminleri almak, uygun modeli ve predict() işlevine tahmin etmek istediğimiz verileri dağıtmak kadar basittir.

# tahmin
predict(ames_lasso_fit, ames_train)

# A tibble: 2,199 x 1
   .pred
   <dbl>
 1  12.3
 2  11.9
 3  12.4
 4  12.2
 5  12.2
 6  12.2
 7  12.1
 8  12.1
 9  12.1
10  12.1
# ... with 2,189 more rows
…
tune ayrıca normal olmayan ızgaralar oluşturmanın yollarını da sağlar.

Grid_random() kullanılarak oluşturulan rastgele ızgaralar, parametre uzayını düzgün bir şekilde örnekleyecektir.

Grid_max_entropy() kullanılarak oluşturulan boşluk doldurma tasarımları (space-filling designs-SFD), parametre alanını daha verimli bir şekilde kaplamak için aday değerleri birbirinden uzak tutmaya çalışacaktır.

Aşağıda bir SFD ızgarasının nasıl oluşturulacağı gösterilmektedir ve 25 aday değerin grafiğini çizmektedir.

# sfd
sfd_grid <- grid_max_entropy(mixture_param, size = 25)

sfd_grid

# A tibble: 25 x 2
    penalty mixture
      <dbl>   <dbl>
 1 1.21e- 8  0.614 
 2 1.32e- 1  0.679 
 3 1.20e-10  0.269 
 4 3.90e- 9  0.414 
 5 8.38e- 6  0.0756
 6 4.02e- 1  0.838 
 7 5.94e-10  0.504 
 8 1.83e- 1  0.177 
 9 3.61e- 3  0.866 
10 2.86e- 7  0.856 
# ... with 15 more rows
…
Sonunda eğlenceli kısma geldik. Satış fiyatını tahmin etmede hangi değişkenlerin en önemli olduğu ortaya çıktı?

tidy_coefs <- ames_mixture_final$fit$fit$fit %>% broom::tidy() %>% filter(term != 
    "(Intercept)") %>% select(-step, -dev.ratio)

delta <- abs(tidy_coefs$lambda - best_mixture$penalty)
lambda_opt <- tidy_coefs$lambda[which.min(delta)]

label_coefs <- tidy_coefs %>% mutate(abs_estimate = abs(estimate)) %>% filter(abs_estimate >= 
    0.01) %>% distinct(term) %>% inner_join(tidy_coefs, by = "term") %>% filter(lambda == 
    lambda_opt)

label_coefs

# A tibble: 45 x 3
   term           estimate lambda
   <chr>             <dbl>  <dbl>
 1 Year_Built      0.0138  0.0320
 2 Year_Remod_Add  0.0542  0.0320
 3 Bsmt_Full_Bath  0.0237  0.0320
 4 Full_Bath       0.0285  0.0320
 5 Half_Bath       0.0118  0.0320
 6 Bedroom_AbvGr   0.00880 0.0320
 7 TotRms_AbvGrd   0.0309  0.0320
 8 Fireplaces      0.0280  0.0320
 9 Garage_Cars     0.0359  0.0320
10 Longitude      -0.0110  0.0320
# ... with 35 more rows
…
